{"pagination":{"last_visible_page":18,"has_next_page":true,"current_page":1,"items":{"count":5,"total":87,"per_page":5}},"data":[{"mal_id":50602,"url":"https:\/\/myanimelist.net\/anime\/50602\/Spy_x_Family_Part_2","images":{"jpg":{"image_url":"https:\/\/cdn.myanimelist.net\/images\/anime\/1111\/127508.jpg","small_image_url":"https:\/\/cdn.myanimelist.net\/images\/anime\/1111\/127508t.jpg","large_image_url":"https:\/\/cdn.myanimelist.net\/images\/anime\/1111\/127508l.jpg"},"webp":{"image_url":"https:\/\/cdn.myanimelist.net\/images\/anime\/1111\/127508.webp","small_image_url":"https:\/\/cdn.myanimelist.net\/images\/anime\/1111\/127508t.webp","large_image_url":"https:\/\/cdn.myanimelist.net\/images\/anime\/1111\/127508l.webp"}},"trailer":{"youtube_id":"WFVY88Urzuc","url":"https:\/\/www.youtube.com\/watch?v=WFVY88Urzuc","embed_url":"https:\/\/www.youtube.com\/embed\/WFVY88Urzuc?enablejsapi=1&wmode=opaque&autoplay=1","images":{"image_url":"https:\/\/img.youtube.com\/vi\/WFVY88Urzuc\/default.jpg","small_image_url":"https:\/\/img.youtube.com\/vi\/WFVY88Urzuc\/sddefault.jpg","medium_image_url":"https:\/\/img.youtube.com\/vi\/WFVY88Urzuc\/mqdefault.jpg","large_image_url":"https:\/\/img.youtube.com\/vi\/WFVY88Urzuc\/hqdefault.jpg","maximum_image_url":"https:\/\/img.youtube.com\/vi\/WFVY88Urzuc\/maxresdefault.jpg"}},"approved":true,"titles":[{"type":"Default","title":"Spy x Family Part 2"},{"type":"Japanese","title":"SPY\u00d7FAMILY"}],"title":"Spy x Family Part 2","title_english":null,"title_japanese":"SPY\u00d7FAMILY","title_synonyms":[],"type":"TV","source":"Manga","episodes":13,"status":"Currently Airing","airing":true,"aired":{"from":"2022-10-01T00:00:00+00:00","to":null,"prop":{"from":{"day":1,"month":10,"year":2022},"to":{"day":null,"month":null,"year":null}},"string":"Oct 1, 2022 to ?"},"duration":"24 min per ep","rating":"PG-13 - Teens 13 or older","score":8.83,"scored_by":19306,"rank":25,"popularity":622,"members":320977,"favorites":2408,"synopsis":"The second part of Spy x Family.","background":null,"season":"fall","year":2022,"broadcast":{"day":"Saturdays","time":"23:00","timezone":"Asia\/Tokyo","string":"Saturdays at 23:00 (JST)"},"producers":[],"licensors":[],"studios":[{"mal_id":858,"type":"anime","name":"Wit Studio","url":"https:\/\/myanimelist.net\/anime\/producer\/858\/Wit_Studio"},{"mal_id":1835,"type":"anime","name":"CloverWorks","url":"https:\/\/myanimelist.net\/anime\/producer\/1835\/CloverWorks"}],"genres":[{"mal_id":1,"type":"anime","name":"Action","url":"https:\/\/myanimelist.net\/anime\/genre\/1\/Action"},{"mal_id":4,"type":"anime","name":"Comedy","url":"https:\/\/myanimelist.net\/anime\/genre\/4\/Comedy"}],"explicit_genres":[],"themes":[{"mal_id":53,"type":"anime","name":"Childcare","url":"https:\/\/myanimelist.net\/anime\/genre\/53\/Childcare"}],"demographics":[{"mal_id":27,"type":"anime","name":"Shounen","url":"https:\/\/myanimelist.net\/anime\/genre\/27\/Shounen"}]},{"mal_id":21,"url":"https:\/\/myanimelist.net\/anime\/21\/One_Piece","images":{"jpg":{"image_url":"https:\/\/cdn.myanimelist.net\/images\/anime\/6\/73245.jpg","small_image_url":"https:\/\/cdn.myanimelist.net\/images\/anime\/6\/73245t.jpg","large_image_url":"https:\/\/cdn.myanimelist.net\/images\/anime\/6\/73245l.jpg"},"webp":{"image_url":"https:\/\/cdn.myanimelist.net\/images\/anime\/6\/73245.webp","small_image_url":"https:\/\/cdn.myanimelist.net\/images\/anime\/6\/73245t.webp","large_image_url":"https:\/\/cdn.myanimelist.net\/images\/anime\/6\/73245l.webp"}},"trailer":{"youtube_id":"l_98K4_6UQ0","url":"https:\/\/www.youtube.com\/watch?v=l_98K4_6UQ0","embed_url":"https:\/\/www.youtube.com\/embed\/l_98K4_6UQ0?enablejsapi=1&wmode=opaque&autoplay=1","images":{"image_url":"https:\/\/img.youtube.com\/vi\/l_98K4_6UQ0\/default.jpg","small_image_url":"https:\/\/img.youtube.com\/vi\/l_98K4_6UQ0\/sddefault.jpg","medium_image_url":"https:\/\/img.youtube.com\/vi\/l_98K4_6UQ0\/mqdefault.jpg","large_image_url":"https:\/\/img.youtube.com\/vi\/l_98K4_6UQ0\/hqdefault.jpg","maximum_image_url":"https:\/\/img.youtube.com\/vi\/l_98K4_6UQ0\/maxresdefault.jpg"}},"approved":true,"titles":[{"type":"Default","title":"One Piece"},{"type":"Synonym","title":"OP"},{"type":"Japanese","title":"ONE PIECE"},{"type":"English","title":"One Piece"}],"title":"One Piece","title_english":"One Piece","title_japanese":"ONE PIECE","title_synonyms":["OP"],"type":"TV","source":"Manga","episodes":null,"status":"Currently Airing","airing":true,"aired":{"from":"1999-10-20T00:00:00+00:00","to":null,"prop":{"from":{"day":20,"month":10,"year":1999},"to":{"day":null,"month":null,"year":null}},"string":"Oct 20, 1999 to ?"},"duration":"24 min","rating":"PG-13 - Teens 13 or older","score":8.67,"scored_by":1127465,"rank":59,"popularity":25,"members":1976366,"favorites":178866,"synopsis":"Gol D. Roger was known as the \"Pirate King,\" the strongest and most infamous being to have sailed the Grand Line. The capture and execution of Roger by the World Government brought a change throughout the world. His last words before his death revealed the existence of the greatest treasure in the world, One Piece. It was this revelation that brought about the Grand Age of Pirates, men who dreamed of finding One Piece\u2014which promises an unlimited amount of riches and fame\u2014and quite possibly the pinnacle of glory and the title of the Pirate King. Enter Monkey D. Luffy, a 17-year-old boy who defies your standard definition of a pirate. Rather than the popular persona of a wicked, hardened, toothless pirate ransacking villages for fun, Luffy's reason for being a pirate is one of pure wonder: the thought of an exciting adventure that leads him to intriguing people and ultimately, the promised treasure. Following in the footsteps of his childhood hero, Luffy and his crew travel across the Grand Line, experiencing crazy adventures, unveiling dark mysteries and battling strong enemies, all in order to reach the most coveted of all fortunes\u2014One Piece. [Written by MAL Rewrite]","background":"Several anime-original arcs have been adapted into light novels, and the series has inspired 40+ video games as of 2021.","season":"fall","year":1999,"broadcast":{"day":"Sundays","time":"09:30","timezone":"Asia\/Tokyo","string":"Sundays at 09:30 (JST)"},"producers":[{"mal_id":169,"type":"anime","name":"Fuji TV","url":"https:\/\/myanimelist.net\/anime\/producer\/169\/Fuji_TV"},{"mal_id":416,"type":"anime","name":"TAP","url":"https:\/\/myanimelist.net\/anime\/producer\/416\/TAP"},{"mal_id":1365,"type":"anime","name":"Shueisha","url":"https:\/\/myanimelist.net\/anime\/producer\/1365\/Shueisha"}],"licensors":[{"mal_id":102,"type":"anime","name":"Funimation","url":"https:\/\/myanimelist.net\/anime\/producer\/102\/Funimation"},{"mal_id":252,"type":"anime","name":"4Kids Entertainment","url":"https:\/\/myanimelist.net\/anime\/producer\/252\/4Kids_Entertainment"}],"studios":[{"mal_id":18,"type":"anime","name":"Toei Animation","url":"https:\/\/myanimelist.net\/anime\/producer\/18\/Toei_Animation"}],"genres":[{"mal_id":1,"type":"anime","name":"Action","url":"https:\/\/myanimelist.net\/anime\/genre\/1\/Action"},{"mal_id":2,"type":"anime","name":"Adventure","url":"https:\/\/myanimelist.net\/anime\/genre\/2\/Adventure"},{"mal_id":10,"type":"anime","name":"Fantasy","url":"https:\/\/myanimelist.net\/anime\/genre\/10\/Fantasy"}],"explicit_genres":[],"themes":[],"demographics":[{"mal_id":27,"type":"anime","name":"Shounen","url":"https:\/\/myanimelist.net\/anime\/genre\/27\/Shounen"}]},{"mal_id":235,"url":"https:\/\/myanimelist.net\/anime\/235\/Detective_Conan","images":{"jpg":{"image_url":"https:\/\/cdn.myanimelist.net\/images\/anime\/7\/75199.jpg","small_image_url":"https:\/\/cdn.myanimelist.net\/images\/anime\/7\/75199t.jpg","large_image_url":"https:\/\/cdn.myanimelist.net\/images\/anime\/7\/75199l.jpg"},"webp":{"image_url":"https:\/\/cdn.myanimelist.net\/images\/anime\/7\/75199.webp","small_image_url":"https:\/\/cdn.myanimelist.net\/images\/anime\/7\/75199t.webp","large_image_url":"https:\/\/cdn.myanimelist.net\/images\/anime\/7\/75199l.webp"}},"trailer":{"youtube_id":"iR2l9M0KzuQ","url":"https:\/\/www.youtube.com\/watch?v=iR2l9M0KzuQ","embed_url":"https:\/\/www.youtube.com\/embed\/iR2l9M0KzuQ?enablejsapi=1&wmode=opaque&autoplay=1","images":{"image_url":"https:\/\/img.youtube.com\/vi\/iR2l9M0KzuQ\/default.jpg","small_image_url":"https:\/\/img.youtube.com\/vi\/iR2l9M0KzuQ\/sddefault.jpg","medium_image_url":"https:\/\/img.youtube.com\/vi\/iR2l9M0KzuQ\/mqdefault.jpg","large_image_url":"https:\/\/img.youtube.com\/vi\/iR2l9M0KzuQ\/hqdefault.jpg","maximum_image_url":"https:\/\/img.youtube.com\/vi\/iR2l9M0KzuQ\/maxresdefault.jpg"}},"approved":true,"titles":[{"type":"Default","title":"Detective Conan"},{"type":"Synonym","title":"Meitantei Conan"},{"type":"Japanese","title":"\u540d\u63a2\u5075\u30b3\u30ca\u30f3"},{"type":"English","title":"Case Closed"},{"type":"German","title":"Case Closed"}],"title":"Detective Conan","title_english":"Case Closed","title_japanese":"\u540d\u63a2\u5075\u30b3\u30ca\u30f3","title_synonyms":["Meitantei Conan"],"type":"TV","source":"Manga","episodes":null,"status":"Currently Airing","airing":true,"aired":{"from":"1996-01-08T00:00:00+00:00","to":null,"prop":{"from":{"day":8,"month":1,"year":1996},"to":{"day":null,"month":null,"year":null}},"string":"Jan 8, 1996 to ?"},"duration":"25 min","rating":"PG-13 - Teens 13 or older","score":8.16,"scored_by":147795,"rank":368,"popularity":629,"members":317498,"favorites":13126,"synopsis":"Shinichi Kudou, a high school student of astounding talent in detective work, is well known for having solved several challenging cases. One day, when Shinichi spots two suspicious men and decides to follow them, he inadvertently becomes witness to a disturbing illegal activity. Unfortunately, he is caught in the act, so the men dose him with an experimental drug formulated by their criminal organization, leaving him to his death. However, to his own astonishment, Shinichi lives to see another day, but now in the body of a seven-year-old child. Perfectly preserving his original intelligence, he hides his real identity from everyone, including his childhood friend Ran Mouri and her father, private detective Kogorou Mouri. To this end, he takes on the alias of Conan Edogawa, inspired by the mystery writers Arthur Conan Doyle and Ranpo Edogawa. Detective Conan follows Shinichi who, as Conan, starts secretly solving the senior Mouri's cases from behind the scenes with his still exceptional sleuthing skills, while covertly investigating the organization responsible for his current state, hoping to reverse the drug's effects someday. [Written by MAL Rewrite]","background":"In 2003, FUNimation licensed the first 104 episodes of the series for North American production under the name Case Closed. They later decided to stop pursuing more episodes past episode 123 due to poor sales. In 2014, Crunchyroll obtained a license to stream simulcast episodes of Detective Conan on their website starting with episode 754. Winner of the Animation Award (DIVE Award) of the 2010 Japanese Movie Critics Awards.","season":"winter","year":1996,"broadcast":{"day":"Saturdays","time":"18:00","timezone":"Asia\/Tokyo","string":"Saturdays at 18:00 (JST)"},"producers":[{"mal_id":76,"type":"anime","name":"Yomiuri Telecasting","url":"https:\/\/myanimelist.net\/anime\/producer\/76\/Yomiuri_Telecasting"},{"mal_id":707,"type":"anime","name":"TMS-Kyokuchi","url":"https:\/\/myanimelist.net\/anime\/producer\/707\/TMS-Kyokuchi"},{"mal_id":1430,"type":"anime","name":"Shogakukan","url":"https:\/\/myanimelist.net\/anime\/producer\/1430\/Shogakukan"}],"licensors":[{"mal_id":102,"type":"anime","name":"Funimation","url":"https:\/\/myanimelist.net\/anime\/producer\/102\/Funimation"},{"mal_id":1468,"type":"anime","name":"Crunchyroll","url":"https:\/\/myanimelist.net\/anime\/producer\/1468\/Crunchyroll"}],"studios":[{"mal_id":73,"type":"anime","name":"TMS Entertainment","url":"https:\/\/myanimelist.net\/anime\/producer\/73\/TMS_Entertainment"}],"genres":[{"mal_id":2,"type":"anime","name":"Adventure","url":"https:\/\/myanimelist.net\/anime\/genre\/2\/Adventure"},{"mal_id":4,"type":"anime","name":"Comedy","url":"https:\/\/myanimelist.net\/anime\/genre\/4\/Comedy"},{"mal_id":7,"type":"anime","name":"Mystery","url":"https:\/\/myanimelist.net\/anime\/genre\/7\/Mystery"}],"explicit_genres":[],"themes":[{"mal_id":39,"type":"anime","name":"Detective","url":"https:\/\/myanimelist.net\/anime\/genre\/39\/Detective"}],"demographics":[{"mal_id":27,"type":"anime","name":"Shounen","url":"https:\/\/myanimelist.net\/anime\/genre\/27\/Shounen"}]},{"mal_id":49828,"url":"https:\/\/myanimelist.net\/anime\/49828\/Mobile_Suit_Gundam__The_Witch_from_Mercury","images":{"jpg":{"image_url":"https:\/\/cdn.myanimelist.net\/images\/anime\/1440\/127624.jpg","small_image_url":"https:\/\/cdn.myanimelist.net\/images\/anime\/1440\/127624t.jpg","large_image_url":"https:\/\/cdn.myanimelist.net\/images\/anime\/1440\/127624l.jpg"},"webp":{"image_url":"https:\/\/cdn.myanimelist.net\/images\/anime\/1440\/127624.webp","small_image_url":"https:\/\/cdn.myanimelist.net\/images\/anime\/1440\/127624t.webp","large_image_url":"https:\/\/cdn.myanimelist.net\/images\/anime\/1440\/127624l.webp"}},"trailer":{"youtube_id":"XLDVIwtBFx4","url":"https:\/\/www.youtube.com\/watch?v=XLDVIwtBFx4","embed_url":"https:\/\/www.youtube.com\/embed\/XLDVIwtBFx4?enablejsapi=1&wmode=opaque&autoplay=1","images":{"image_url":"https:\/\/img.youtube.com\/vi\/XLDVIwtBFx4\/default.jpg","small_image_url":"https:\/\/img.youtube.com\/vi\/XLDVIwtBFx4\/sddefault.jpg","medium_image_url":"https:\/\/img.youtube.com\/vi\/XLDVIwtBFx4\/mqdefault.jpg","large_image_url":"https:\/\/img.youtube.com\/vi\/XLDVIwtBFx4\/hqdefault.jpg","maximum_image_url":"https:\/\/img.youtube.com\/vi\/XLDVIwtBFx4\/maxresdefault.jpg"}},"approved":true,"titles":[{"type":"Default","title":"Mobile Suit Gundam: The Witch from Mercury"},{"type":"Synonym","title":"Kidou Senshi Gundam: Suisei no Majo"},{"type":"Synonym","title":"G-Witch"},{"type":"Japanese","title":"\u6a5f\u52d5\u6226\u58eb\u30ac\u30f3\u30c0\u30e0 \u6c34\u661f\u306e\u9b54\u5973"},{"type":"English","title":"Mobile Suit Gundam: The Witch from Mercury"}],"title":"Mobile Suit Gundam: The Witch from Mercury","title_english":"Mobile Suit Gundam: The Witch from Mercury","title_japanese":"\u6a5f\u52d5\u6226\u58eb\u30ac\u30f3\u30c0\u30e0 \u6c34\u661f\u306e\u9b54\u5973","title_synonyms":["Kidou Senshi Gundam: Suisei no Majo","G-Witch"],"type":"TV","source":"Original","episodes":null,"status":"Currently Airing","airing":true,"aired":{"from":"2022-10-02T00:00:00+00:00","to":null,"prop":{"from":{"day":2,"month":10,"year":2022},"to":{"day":null,"month":null,"year":null}},"string":"Oct 2, 2022 to ?"},"duration":"24 min","rating":"PG-13 - Teens 13 or older","score":8.11,"scored_by":2211,"rank":428,"popularity":3813,"members":26427,"favorites":150,"synopsis":"A.S. (Ad Stella) 122\u2015 An era when a multitude of corporations have entered space and built a huge economic system. A lone girl from the remote planet Mercury transfers to the Asticassia School of Technology, run by the Beneritt Group which dominates the mobile suit industry. Her name is Suletta Mercury. With a scarlet light burning in her pure heart, this girl walks step by step through a new world. (Source: Official Site)","background":null,"season":"fall","year":2022,"broadcast":{"day":"Sundays","time":"17:00","timezone":"Asia\/Tokyo","string":"Sundays at 17:00 (JST)"},"producers":[{"mal_id":64,"type":"anime","name":"Sotsu","url":"https:\/\/myanimelist.net\/anime\/producer\/64\/Sotsu"},{"mal_id":143,"type":"anime","name":"Mainichi Broadcasting System","url":"https:\/\/myanimelist.net\/anime\/producer\/143\/Mainichi_Broadcasting_System"},{"mal_id":2424,"type":"anime","name":"Bandai Namco Filmworks","url":"https:\/\/myanimelist.net\/anime\/producer\/2424\/Bandai_Namco_Filmworks"}],"licensors":[],"studios":[{"mal_id":14,"type":"anime","name":"Sunrise","url":"https:\/\/myanimelist.net\/anime\/producer\/14\/Sunrise"}],"genres":[],"explicit_genres":[],"themes":[{"mal_id":18,"type":"anime","name":"Mecha","url":"https:\/\/myanimelist.net\/anime\/genre\/18\/Mecha"}],"demographics":[]},{"mal_id":50203,"url":"https:\/\/myanimelist.net\/anime\/50203\/Love_Live_Superstar_2nd_Season","images":{"jpg":{"image_url":"https:\/\/cdn.myanimelist.net\/images\/anime\/1238\/124173.jpg","small_image_url":"https:\/\/cdn.myanimelist.net\/images\/anime\/1238\/124173t.jpg","large_image_url":"https:\/\/cdn.myanimelist.net\/images\/anime\/1238\/124173l.jpg"},"webp":{"image_url":"https:\/\/cdn.myanimelist.net\/images\/anime\/1238\/124173.webp","small_image_url":"https:\/\/cdn.myanimelist.net\/images\/anime\/1238\/124173t.webp","large_image_url":"https:\/\/cdn.myanimelist.net\/images\/anime\/1238\/124173l.webp"}},"trailer":{"youtube_id":"B7qcheTzLFQ","url":"https:\/\/www.youtube.com\/watch?v=B7qcheTzLFQ","embed_url":"https:\/\/www.youtube.com\/embed\/B7qcheTzLFQ?enablejsapi=1&wmode=opaque&autoplay=1","images":{"image_url":"https:\/\/img.youtube.com\/vi\/B7qcheTzLFQ\/default.jpg","small_image_url":"https:\/\/img.youtube.com\/vi\/B7qcheTzLFQ\/sddefault.jpg","medium_image_url":"https:\/\/img.youtube.com\/vi\/B7qcheTzLFQ\/mqdefault.jpg","large_image_url":"https:\/\/img.youtube.com\/vi\/B7qcheTzLFQ\/hqdefault.jpg","maximum_image_url":"https:\/\/img.youtube.com\/vi\/B7qcheTzLFQ\/maxresdefault.jpg"}},"approved":true,"titles":[{"type":"Default","title":"Love Live! Superstar!! 2nd Season"},{"type":"Japanese","title":"\u30e9\u30d6\u30e9\u30a4\u30d6\uff01\u30b9\u30fc\u30d1\u30fc\u30b9\u30bf\u30fc!!"}],"title":"Love Live! Superstar!! 2nd Season","title_english":null,"title_japanese":"\u30e9\u30d6\u30e9\u30a4\u30d6\uff01\u30b9\u30fc\u30d1\u30fc\u30b9\u30bf\u30fc!!","title_synonyms":[],"type":"TV","source":"Other","episodes":12,"status":"Currently Airing","airing":true,"aired":{"from":"2022-07-17T00:00:00+00:00","to":"2022-10-09T00:00:00+00:00","prop":{"from":{"day":17,"month":7,"year":2022},"to":{"day":9,"month":10,"year":2022}},"string":"Jul 17, 2022 to Oct 9, 2022"},"duration":"23 min per ep","rating":"PG-13 - Teens 13 or older","score":8.09,"scored_by":3533,"rank":460,"popularity":4121,"members":22317,"favorites":224,"synopsis":"As another year begins at Yuigaoka Girls' High School, ushering in a fresh batch of students, the school idol club Liella! is excited to expand their membership. However, Liella! is extremely popular due to the astounding talent they have continuously displayed; thus, new students lack the courage to even consider approaching the club, fearing the rigorous training that might lie ahead. Amid her worries, club leader and co-founder Kanon Shibuya meets first-year student Kinako Sakurakouji and tells her about the world of school idols. This leaves Kinako in awe, but being fairly average herself, she feels she would not be capable of matching the spirited performances of the brilliant Liella! members. Nonetheless, Kinako receives encouragement to join the group and comes to share their dream of reaching for the stars once again in the grand Love Live! Competition. [Written by MAL Rewrite]","background":"Love Live! Superstar!! 2nd Season was released on Blu-ray in six volumes from September 28, 2022 to February 24, 2023.","season":"summer","year":2022,"broadcast":{"day":"Sundays","time":"19:00","timezone":"Asia\/Tokyo","string":"Sundays at 19:00 (JST)"},"producers":[{"mal_id":775,"type":"anime","name":"Bushiroad","url":"https:\/\/myanimelist.net\/anime\/producer\/775\/Bushiroad"},{"mal_id":1696,"type":"anime","name":"Kadokawa","url":"https:\/\/myanimelist.net\/anime\/producer\/1696\/Kadokawa"},{"mal_id":1840,"type":"anime","name":"Bandai Namco Arts","url":"https:\/\/myanimelist.net\/anime\/producer\/1840\/Bandai_Namco_Arts"},{"mal_id":2424,"type":"anime","name":"Bandai Namco Filmworks","url":"https:\/\/myanimelist.net\/anime\/producer\/2424\/Bandai_Namco_Filmworks"},{"mal_id":2425,"type":"anime","name":"Bandai Namco Music Live","url":"https:\/\/myanimelist.net\/anime\/producer\/2425\/Bandai_Namco_Music_Live"}],"licensors":[],"studios":[{"mal_id":14,"type":"anime","name":"Sunrise","url":"https:\/\/myanimelist.net\/anime\/producer\/14\/Sunrise"}],"genres":[{"mal_id":36,"type":"anime","name":"Slice of Life","url":"https:\/\/myanimelist.net\/anime\/genre\/36\/Slice_of_Life"}],"explicit_genres":[],"themes":[{"mal_id":60,"type":"anime","name":"Idols (Female)","url":"https:\/\/myanimelist.net\/anime\/genre\/60\/Idols_Female"},{"mal_id":19,"type":"anime","name":"Music","url":"https:\/\/myanimelist.net\/anime\/genre\/19\/Music"},{"mal_id":23,"type":"anime","name":"School","url":"https:\/\/myanimelist.net\/anime\/genre\/23\/School"}],"demographics":[]}]}